{
    "componentChunkName": "component---node-modules-gatsby-theme-buzzing-src-gatsby-theme-timeline-templates-posts-query-js",
    "path": "/tags/tweet/page/3",
    "result": {"data":{"site":{"siteMetadata":{"title":"纽约时报热门","author":"Buzzing.cc","description":"用中文浏览纽约时报热门报道","keywords":["buzzing","纽约时报"],"siteUrl":"https://nytimes.buzzing.cc","telegram":"@buzzingcc","iconUrl":"https://nytimes.buzzing.cc/avatar.png","defaultSocialImageUrl":null,"social":[{"name":"The New York Times","url":"https://www.nytimes.com","external":true},{"name":"Buzzing","url":"https://www.buzzing.cc/","external":true}],"menuLinks":[],"disqus":null,"utterances":null,"localize":[{"title":"The New York Times Trends","description":"See what's buzzing on The New York Times in your native language","keywords":["buzzing","The New York Times"],"locale":"en","social":{"name":null,"url":null,"external":null},"menuLinks":[{"name":"Weekly Selection","url":"/issues","external":null}]},{"title":"紐約時報熱門","description":"用中文瀏覽紐約時報熱門報導","keywords":["buzzing","紐約時報"],"locale":"zh-Hant","social":null,"menuLinks":[]},{"title":"ニューヨーク・タイムズ","description":"人気のニューヨーク・タイムズを日本語で閲覧","keywords":["buzzing","ニューヨーク・タイムズ"],"locale":"ja","social":null,"menuLinks":[]}]}},"tagsGroup":{"group":[{"fieldValue":"COP26","totalCount":7},{"fieldValue":"MeToo","totalCount":2},{"fieldValue":"tweet","totalCount":1002}]},"allBlogPost":{"nodes":[{"id":"TweetPost-1443612870231592964","excerpt":"","slug":"/tweet/1443612870231592964","title":"The city of San Jose, California, apologized this week to Chinese immigrants and their descendants, acknowledging its role in nearly a century of violence and discrimination, including the dismantling and destruction of the city’s Chinatowns. https://t.co/4wMtGwEYYm","date":"October 01, 2021","dateISO":"2021-10-01T01:12:50.000Z","datetime":"2021-10-01 01:12","tags":["tweet"],"image":null,"imageAlt":null,"__typename":"SocialMediaPost","provider":"Twitter","thirdPartyId":"1443612870231592964","url":"https://twitter.com/nytimes/statuses/1443612870231592964","originalUrl":null,"imageRemote":null,"video":null,"channel":null,"channelUrl":null,"author":"The New York Times","authorUrl":"https://twitter.com/nytimes","authorImageRemote":"https://pbs.twimg.com/profile_images/1098244578472280064/gjkVMelR.png","authorImage":null,"authorSlug":"nytimes","score":1045,"views":null,"sharedCount":171,"likeCount":703,"sharedContent":null,"parent":{"localize":[{"locale":"ja","full_text":"カリフォルニア州サンノゼ市は今週、中国からの移民とその子孫に謝罪し、市のチャイナタウンの解体や破壊を含む、約1世紀にわたる暴力と差別に関与したことを認めた。https://t.co/4wMtGwEYYm","quoted_status_full_text":null,"retweeted_status_full_text":null},{"locale":"zh","full_text":"加利福尼亚州圣何塞市本周向中国移民及其后代道歉，承认其在近一个世纪的暴力和歧视中的作用，包括拆除和破坏该市的中国城。https://t.co/4wMtGwEYYm。","quoted_status_full_text":null,"retweeted_status_full_text":null},{"locale":"zh-Hant","full_text":"加利福尼亞州聖何塞市本週向中國移民及其後代道歉，承認其在近一個世紀的暴力和歧視中的作用，包括拆除和破壞該市的中國城。https://t.co/4wMtGwEYYm。","quoted_status_full_text":null,"retweeted_status_full_text":null}]}},{"id":"TweetPost-1443737463667703815","excerpt":"","slug":"/tweet/1443737463667703815","title":"A month after they escaped from a farm in Maryland, five zebras have evaded capture and are continuing to ramble across the wilds of suburban Prince George’s County. \nhttps://t.co/xtYbf39Iel","date":"October 01, 2021","dateISO":"2021-10-01T01:12:50.000Z","datetime":"2021-10-01 01:12","tags":["tweet"],"image":null,"imageAlt":null,"__typename":"SocialMediaPost","provider":"Twitter","thirdPartyId":"1443737463667703815","url":"https://twitter.com/nytimes/statuses/1443737463667703815","originalUrl":null,"imageRemote":null,"video":null,"channel":null,"channelUrl":null,"author":"The New York Times","authorUrl":"https://twitter.com/nytimes","authorImageRemote":"https://pbs.twimg.com/profile_images/1098244578472280064/gjkVMelR.png","authorImage":null,"authorSlug":"nytimes","score":1042,"views":null,"sharedCount":127,"likeCount":788,"sharedContent":null,"parent":{"localize":[{"locale":"ja","full_text":"メリーランド州の農場から脱走して1ヶ月、5頭のシマウマが捕獲を免れ、郊外のプリンスジョージズ郡の荒野を放浪し続けている。\nhttps://t.co/xtYbf39Iel","quoted_status_full_text":null,"retweeted_status_full_text":null},{"locale":"zh","full_text":"从马里兰州的一个农场逃出一个月后，五匹斑马躲过了追捕，继续在乔治王子县郊区的荒野中游荡。\nhttps://t.co/xtYbf39Iel","quoted_status_full_text":null,"retweeted_status_full_text":null},{"locale":"zh-Hant","full_text":"從馬里蘭州的一個農場逃出一個月後，五匹斑馬躲過了追捕，繼續在喬治王子縣郊區的荒野中游蕩。\nhttps://t.co/xtYbf39Iel","quoted_status_full_text":null,"retweeted_status_full_text":null}]}}]}},"pageContext":{"basePath":"/","pageType":"tag","tag":"tweet","tagsFilter":{"date":{"gt":"2000-12-25T10:54:58.000Z"}},"filter":{"date":{"gt":"2000-12-25T10:54:58.000Z"},"tags":{"eq":"tweet"}},"limit":500,"skip":1000,"total":1002,"totalPages":3,"currentPage":3,"maxWidth":1024,"maxHeight":512,"siteMetadata":null,"locale":"zh","hrefLang":"zh-Hans","originalPath":"/tags/tweet/page/3","dateFormat":"YYYY-MM-DD"}},
    "staticQueryHashes": ["1239077767","2744905544","3025052997","3280999885"]}