{
    "componentChunkName": "component---node-modules-gatsby-theme-buzzing-src-gatsby-theme-timeline-templates-posts-query-js",
    "path": "/page/23",
    "result": {"data":{"site":{"siteMetadata":{"title":"纽约时报热门","author":"Buzzing.cc","description":"用中文浏览纽约时报热门报道","keywords":["buzzing","纽约时报"],"siteUrl":"https://nytimes.buzzing.cc","telegram":"@buzzingcc","iconUrl":"https://nytimes.buzzing.cc/avatar.png","defaultSocialImageUrl":null,"social":[{"name":"The New York Times","url":"https://www.nytimes.com","external":true},{"name":"Buzzing","url":"https://www.buzzing.cc/","external":true}],"menuLinks":[],"disqus":null,"utterances":null,"localize":[{"title":"The New York Times Trends","description":"See what's buzzing on The New York Times in your native language","keywords":["buzzing","The New York Times"],"locale":"en","social":{"name":null,"url":null,"external":null},"menuLinks":[{"name":"Weekly Selection","url":"/issues","external":null}]},{"title":"紐約時報熱門","description":"用中文瀏覽紐約時報熱門報導","keywords":["buzzing","紐約時報"],"locale":"zh-Hant","social":null,"menuLinks":[]},{"title":"ニューヨーク・タイムズ","description":"人気のニューヨーク・タイムズを日本語で閲覧","keywords":["buzzing","ニューヨーク・タイムズ"],"locale":"ja","social":null,"menuLinks":[]}]}},"tagsGroup":{"group":[{"fieldValue":"COP26","totalCount":7},{"fieldValue":"MeToo","totalCount":2},{"fieldValue":"tweet","totalCount":1104}]},"allBlogPost":{"nodes":[{"id":"TweetPost-1443719834324377603","excerpt":"","slug":"/tweet/1443719834324377603","title":"Representatives Cori Bush, Pramila Jayapal and Barbara Lee spoke to a House committee about their personal decisions to seek an abortion. https://t.co/ipRzrE00YC https://t.co/5WAk52EVIh","date":"October 01, 2021","dateISO":"2021-10-01T04:45:42.000Z","datetime":"2021-10-01 04:45","tags":["tweet"],"image":null,"imageAlt":"Tweet Image","__typename":"SocialMediaPost","provider":"Twitter","thirdPartyId":"1443719834324377603","url":"https://twitter.com/nytimes/statuses/1443719834324377603","originalUrl":null,"imageRemote":"https://pbs.twimg.com/amplify_video_thumb/1443714523811155970/img/akOm5Gk3BbPKqW3i.jpg","video":null,"channel":null,"channelUrl":null,"author":"The New York Times","authorUrl":"https://twitter.com/nytimes","authorImageRemote":"https://pbs.twimg.com/profile_images/1098244578472280064/gjkVMelR.png","authorImage":null,"authorSlug":"nytimes","score":1001,"views":null,"sharedCount":146,"likeCount":709,"sharedContent":null,"parent":{"localize":[{"locale":"ja","full_text":"コリ・ブッシュ、プラミラ・ジャヤパル、バーバラ・リーの各議員は、下院委員会で、中絶を求める個人的な決断について話しました。 https://t.co/ipRzrE00YC https://t.co/5WAk52EVIh","quoted_status_full_text":null,"retweeted_status_full_text":null},{"locale":"zh","full_text":"科里-布什、普拉米拉-贾亚帕尔和芭芭拉-李众议员在众议院委员会上谈到了他们寻求堕胎的个人决定。https://t.co/ipRzrE00YC https://t.co/5WAk52EVIh","quoted_status_full_text":null,"retweeted_status_full_text":null},{"locale":"zh-Hant","full_text":"科裏-布什、普拉米拉-賈亞帕爾和芭芭拉-李衆議員在衆議院委員會上談到了他們尋求墮胎的個人決定。https://t.co/ipRzrE00YC https://t.co/5WAk52EVIh","quoted_status_full_text":null,"retweeted_status_full_text":null}]}},{"id":"TweetPost-1443540000604364807","excerpt":"","slug":"/tweet/1443540000604364807","title":"Breaking News: Wayne Couzens, the police officer who pleaded guilty to the abduction, rape and murder of Sarah Everard — a 33-year-old London woman whose death prompted calls to address violence against women — was sentenced to life in prison. https://t.co/4WfE00uO17","date":"October 01, 2021","dateISO":"2021-10-01T02:58:34.000Z","datetime":"2021-10-01 02:58","tags":["tweet"],"image":null,"imageAlt":null,"__typename":"SocialMediaPost","provider":"Twitter","thirdPartyId":"1443540000604364807","url":"https://twitter.com/nytimes/statuses/1443540000604364807","originalUrl":null,"imageRemote":null,"video":null,"channel":null,"channelUrl":null,"author":"The New York Times","authorUrl":"https://twitter.com/nytimes","authorImageRemote":"https://pbs.twimg.com/profile_images/1098244578472280064/gjkVMelR.png","authorImage":null,"authorSlug":"nytimes","score":1001,"views":null,"sharedCount":119,"likeCount":763,"sharedContent":null,"parent":{"localize":[{"locale":"ja","full_text":"Breaking Newsです。サラ・エベラード（ロンドン在住の33歳の女性）の誘拐、レイプ、殺人の罪を認めた警察官、ウェイン・クーゼンズが終身刑を宣告されました。女性に対する暴力への対策を求める声が高まっていました。https://t.co/4WfE00uO17","quoted_status_full_text":null,"retweeted_status_full_text":null},{"locale":"zh","full_text":"突发新闻。韦恩-库森斯，这位承认犯有绑架、强奸和谋杀莎拉-埃弗拉德的警官--这位33岁的伦敦妇女的死亡促使人们呼吁解决对妇女的暴力问题--被判处终身监禁。https://t.co/4WfE00uO17","quoted_status_full_text":null,"retweeted_status_full_text":null},{"locale":"zh-Hant","full_text":"突發新聞。韋恩-庫森斯，這位承認犯有綁架、強姦和謀殺莎拉-埃弗拉德的警官--這位33歲的倫敦婦女的死亡促使人們呼籲解決對婦女的暴力問題--被判處終身監禁。https://t.co/4WfE00uO17","quoted_status_full_text":null,"retweeted_status_full_text":null}]}},{"id":"TweetPost-1443612870231592964","excerpt":"","slug":"/tweet/1443612870231592964","title":"The city of San Jose, California, apologized this week to Chinese immigrants and their descendants, acknowledging its role in nearly a century of violence and discrimination, including the dismantling and destruction of the city’s Chinatowns. https://t.co/4wMtGwEYYm","date":"October 01, 2021","dateISO":"2021-10-01T01:12:50.000Z","datetime":"2021-10-01 01:12","tags":["tweet"],"image":null,"imageAlt":null,"__typename":"SocialMediaPost","provider":"Twitter","thirdPartyId":"1443612870231592964","url":"https://twitter.com/nytimes/statuses/1443612870231592964","originalUrl":null,"imageRemote":null,"video":null,"channel":null,"channelUrl":null,"author":"The New York Times","authorUrl":"https://twitter.com/nytimes","authorImageRemote":"https://pbs.twimg.com/profile_images/1098244578472280064/gjkVMelR.png","authorImage":null,"authorSlug":"nytimes","score":1045,"views":null,"sharedCount":171,"likeCount":703,"sharedContent":null,"parent":{"localize":[{"locale":"ja","full_text":"カリフォルニア州サンノゼ市は今週、中国からの移民とその子孫に謝罪し、市のチャイナタウンの解体や破壊を含む、約1世紀にわたる暴力と差別に関与したことを認めた。https://t.co/4wMtGwEYYm","quoted_status_full_text":null,"retweeted_status_full_text":null},{"locale":"zh","full_text":"加利福尼亚州圣何塞市本周向中国移民及其后代道歉，承认其在近一个世纪的暴力和歧视中的作用，包括拆除和破坏该市的中国城。https://t.co/4wMtGwEYYm。","quoted_status_full_text":null,"retweeted_status_full_text":null},{"locale":"zh-Hant","full_text":"加利福尼亞州聖何塞市本週向中國移民及其後代道歉，承認其在近一個世紀的暴力和歧視中的作用，包括拆除和破壞該市的中國城。https://t.co/4wMtGwEYYm。","quoted_status_full_text":null,"retweeted_status_full_text":null}]}},{"id":"TweetPost-1443737463667703815","excerpt":"","slug":"/tweet/1443737463667703815","title":"A month after they escaped from a farm in Maryland, five zebras have evaded capture and are continuing to ramble across the wilds of suburban Prince George’s County. \nhttps://t.co/xtYbf39Iel","date":"October 01, 2021","dateISO":"2021-10-01T01:12:50.000Z","datetime":"2021-10-01 01:12","tags":["tweet"],"image":null,"imageAlt":null,"__typename":"SocialMediaPost","provider":"Twitter","thirdPartyId":"1443737463667703815","url":"https://twitter.com/nytimes/statuses/1443737463667703815","originalUrl":null,"imageRemote":null,"video":null,"channel":null,"channelUrl":null,"author":"The New York Times","authorUrl":"https://twitter.com/nytimes","authorImageRemote":"https://pbs.twimg.com/profile_images/1098244578472280064/gjkVMelR.png","authorImage":null,"authorSlug":"nytimes","score":1042,"views":null,"sharedCount":127,"likeCount":788,"sharedContent":null,"parent":{"localize":[{"locale":"ja","full_text":"メリーランド州の農場から脱走して1ヶ月、5頭のシマウマが捕獲を免れ、郊外のプリンスジョージズ郡の荒野を放浪し続けている。\nhttps://t.co/xtYbf39Iel","quoted_status_full_text":null,"retweeted_status_full_text":null},{"locale":"zh","full_text":"从马里兰州的一个农场逃出一个月后，五匹斑马躲过了追捕，继续在乔治王子县郊区的荒野中游荡。\nhttps://t.co/xtYbf39Iel","quoted_status_full_text":null,"retweeted_status_full_text":null},{"locale":"zh-Hant","full_text":"從馬里蘭州的一個農場逃出一個月後，五匹斑馬躲過了追捕，繼續在喬治王子縣郊區的荒野中游蕩。\nhttps://t.co/xtYbf39Iel","quoted_status_full_text":null,"retweeted_status_full_text":null}]}}]}},"pageContext":{"basePath":"/","pageType":"home","tagsFilter":{"date":{"gt":"2000-12-25T10:54:58.000Z"}},"filter":{"date":{"gt":"2000-12-25T10:54:58.000Z"}},"limit":50,"skip":1100,"totalPages":23,"total":1104,"currentPage":23,"maxWidth":1024,"maxHeight":512,"siteMetadata":null,"locale":"zh","hrefLang":"zh-Hans","originalPath":"/page/23","dateFormat":"YYYY-MM-DD"}},
    "staticQueryHashes": ["1239077767","2744905544","3025052997","3280999885"]}