{
    "componentChunkName": "component---node-modules-gatsby-theme-buzzing-src-gatsby-theme-timeline-templates-posts-query-js",
    "path": "/en/page/21",
    "result": {"data":{"site":{"siteMetadata":{"title":"纽约时报热门","author":"Buzzing.cc","description":"用中文浏览纽约时报热门报道","keywords":["buzzing","纽约时报"],"siteUrl":"https://nytimes.buzzing.cc","telegram":"@buzzingcc","iconUrl":"https://nytimes.buzzing.cc/avatar.png","defaultSocialImageUrl":null,"social":[{"name":"The New York Times","url":"https://www.nytimes.com","external":true},{"name":"Buzzing","url":"https://www.buzzing.cc/","external":true}],"menuLinks":[],"disqus":null,"utterances":null,"localize":[{"title":"The New York Times Trends","description":"See what's buzzing on The New York Times in your native language","keywords":["buzzing","The New York Times"],"locale":"en","social":{"name":null,"url":null,"external":null},"menuLinks":[{"name":"Weekly Selection","url":"/issues","external":null}]},{"title":"紐約時報熱門","description":"用中文瀏覽紐約時報熱門報導","keywords":["buzzing","紐約時報"],"locale":"zh-Hant","social":null,"menuLinks":[]},{"title":"ニューヨーク・タイムズ","description":"人気のニューヨーク・タイムズを日本語で閲覧","keywords":["buzzing","ニューヨーク・タイムズ"],"locale":"ja","social":null,"menuLinks":[]}]}},"tagsGroup":{"group":[{"fieldValue":"COP26","totalCount":7},{"fieldValue":"MeToo","totalCount":2},{"fieldValue":"tweet","totalCount":1015}]},"allBlogPost":{"nodes":[{"id":"TweetPost-1444026132303581189","excerpt":"","slug":"/tweet/1444026132303581189","title":"After George Floyd’s murder, some New York City firefighters shared racist messages mocking his death. They gloated about how police could \"legally shoot Black children.\" After Black firefighters complained, officials quietly suspended nine firefighters. https://t.co/UO2DXOd1qe","date":"October 01, 2021","dateISO":"2021-10-01T23:42:50.000Z","datetime":"2021-10-01 23:42","tags":["tweet"],"image":null,"imageAlt":null,"__typename":"SocialMediaPost","provider":"Twitter","thirdPartyId":"1444026132303581189","url":"https://twitter.com/nytimes/statuses/1444026132303581189","originalUrl":null,"imageRemote":null,"video":null,"channel":null,"channelUrl":null,"author":"The New York Times","authorUrl":"https://twitter.com/nytimes","authorImageRemote":"https://pbs.twimg.com/profile_images/1098244578472280064/gjkVMelR.png","authorImage":null,"authorSlug":"nytimes","score":1006,"views":null,"sharedCount":217,"likeCount":572,"sharedContent":null,"parent":{"localize":[{"locale":"ja","full_text":"ジョージ・フロイドが殺害された後、ニューヨーク市の一部の消防士が彼の死をあざ笑う人種差別的なメッセージを共有しました。彼らは、警察が「黒人の子供を合法的に射殺できる」とほくそ笑んでいました。黒人消防士が苦情を言った後、当局は9人の消防士を静かに停職させた。https://t.co/UO2DXOd1qe","quoted_status_full_text":null,"retweeted_status_full_text":null},{"locale":"zh","full_text":"在乔治-弗洛伊德被谋杀后，一些纽约市的消防员分享了嘲笑他死亡的种族主义信息。他们幸灾乐祸地说，警察可以 \"合法地射击黑人儿童\"。在黑人消防员提出抱怨后，官员们悄悄地将9名消防员停职。https://t.co/UO2DXOd1qe","quoted_status_full_text":null,"retweeted_status_full_text":null},{"locale":"zh-Hant","full_text":"在喬治-弗洛伊德被謀殺後，一些紐約市的消防員分享了嘲笑他死亡的種族主義信息。他們幸災樂禍地說，警察可以 \"合法地射擊黑人兒童\"。在黑人消防員提出抱怨後，官員們悄悄地將9名消防員停職。https://t.co/UO2DXOd1qe","quoted_status_full_text":null,"retweeted_status_full_text":null}]}},{"id":"TweetPost-1444003573377994760","excerpt":"","slug":"/tweet/1444003573377994760","title":"Breaking News: California plans to require FDA-approved Covid vaccines for K-12 students as early as next fall, the first U.S. state to announce such a mandate. https://t.co/hrJklHvUiU","date":"October 01, 2021","dateISO":"2021-10-01T23:10:55.000Z","datetime":"2021-10-01 23:10","tags":["tweet"],"image":null,"imageAlt":null,"__typename":"SocialMediaPost","provider":"Twitter","thirdPartyId":"1444003573377994760","url":"https://twitter.com/nytimes/statuses/1444003573377994760","originalUrl":null,"imageRemote":null,"video":null,"channel":null,"channelUrl":null,"author":"The New York Times","authorUrl":"https://twitter.com/nytimes","authorImageRemote":"https://pbs.twimg.com/profile_images/1098244578472280064/gjkVMelR.png","authorImage":null,"authorSlug":"nytimes","score":1116,"views":null,"sharedCount":119,"likeCount":878,"sharedContent":null,"parent":{"localize":[{"locale":"ja","full_text":"Breaking Newsです。カリフォルニア州は、早ければ来年秋にも、幼稚園児から高校生までにFDA承認のCovidワクチンの接種を義務付ける計画です。このような義務化を発表するのは米国の州では初めてです。https://t.co/hrJklHvUiU","quoted_status_full_text":null,"retweeted_status_full_text":null},{"locale":"zh","full_text":"突发新闻。加利福尼亚州计划最早在明年秋天要求为K-12学生接种FDA批准的Covid疫苗，这是美国第一个宣布此类任务的州。https://t.co/hrJklHvUiU。","quoted_status_full_text":null,"retweeted_status_full_text":null},{"locale":"zh-Hant","full_text":"突發新聞。加利福尼亞州計劃最早在明年秋天要求爲K-12學生接種FDA批准的Covid疫苗，這是美國第一個宣佈此類任務的州。https://t.co/hrJklHvUiU。","quoted_status_full_text":null,"retweeted_status_full_text":null}]}},{"id":"TweetPost-1444072655431290880","excerpt":"","slug":"/tweet/1444072655431290880","title":"Breaking News: Over 700,000 Americans have died of Covid-19. This pandemic is the deadliest in U.S. history, overtaking the toll from the influenza pandemic of 1918 and 1919. Every age group under 55 saw its highest death toll of the pandemic this August. https://t.co/mNP4pysUKq https://t.co/X9FhcZFtey","date":"October 01, 2021","dateISO":"2021-10-01T23:10:55.000Z","datetime":"2021-10-01 23:10","tags":["tweet"],"image":null,"imageAlt":"Tweet Image","__typename":"SocialMediaPost","provider":"Twitter","thirdPartyId":"1444072655431290880","url":"https://twitter.com/nytimes/statuses/1444072655431290880","originalUrl":null,"imageRemote":"https://pbs.twimg.com/media/FApgbW7WUAUUtN-.jpg","video":null,"channel":null,"channelUrl":null,"author":"The New York Times","authorUrl":"https://twitter.com/nytimes","authorImageRemote":"https://pbs.twimg.com/profile_images/1098244578472280064/gjkVMelR.png","authorImage":null,"authorSlug":"nytimes","score":1569,"views":null,"sharedCount":460,"likeCount":649,"sharedContent":null,"parent":{"localize":[{"locale":"ja","full_text":"Breaking Newsです。70万人以上のアメリカ人がCovid-19で亡くなっています。このパンデミックは、1918年と1919年に起こったインフルエンザの大流行による犠牲者を上回る、米国史上最悪の死者数となっています。今年の8月には、55歳以下のすべての年齢層で、今回のパンデミックにおける最高の死者数を記録しました。 https://t.co/mNP4pysUKq https://t.co/X9FhcZFtey","quoted_status_full_text":null,"retweeted_status_full_text":null},{"locale":"zh","full_text":"突发新闻。超过70万名美国人死于Covid-19。这次大流行是美国历史上最致命的一次，超过了1918年和1919年流感大流行的死亡人数。今年8月，55岁以下的每个年龄组都出现了这次大流行的最高死亡人数。https://t.co/mNP4pysUKq https://t.co/X9FhcZFtey","quoted_status_full_text":null,"retweeted_status_full_text":null},{"locale":"zh-Hant","full_text":"突發新聞。超過70萬名美國人死於Covid-19。這次大流行是美國曆史上最致命的一次，超過了1918年和1919年流感大流行的死亡人數。今年8月，55歲以下的每個年齡組都出現了這次大流行的最高死亡人數。https://t.co/mNP4pysUKq https://t.co/X9FhcZFtey","quoted_status_full_text":null,"retweeted_status_full_text":null}]}},{"id":"TweetPost-1444032229781409795","excerpt":"","slug":"/tweet/1444032229781409795","title":"Nearly 700,000 people in the U.S. have now died of Covid-19 — making this the deadliest pandemic in American history.\n\nA majority who died recently were in the South and unvaccinated. Many of the victims were also younger than before. https://t.co/SqffAYhunH","date":"October 01, 2021","dateISO":"2021-10-01T22:39:09.000Z","datetime":"2021-10-01 22:39","tags":["tweet"],"image":null,"imageAlt":null,"__typename":"SocialMediaPost","provider":"Twitter","thirdPartyId":"1444032229781409795","url":"https://twitter.com/nytimes/statuses/1444032229781409795","originalUrl":null,"imageRemote":null,"video":null,"channel":null,"channelUrl":null,"author":"The New York Times","authorUrl":"https://twitter.com/nytimes","authorImageRemote":"https://pbs.twimg.com/profile_images/1098244578472280064/gjkVMelR.png","authorImage":null,"authorSlug":"nytimes","score":1022,"views":null,"sharedCount":288,"likeCount":446,"sharedContent":null,"parent":{"localize":[{"locale":"ja","full_text":"現在、米国では70万人近くがコヴィド-19で死亡しており、これは米国史上最大のパンデミックとなっています。\n\n最近死亡した人の大半は南部に住んでいて、ワクチンを接種していませんでした。また、犠牲者の多くは以前よりも若くなっています。https://t.co/SqffAYhunH","quoted_status_full_text":null,"retweeted_status_full_text":null},{"locale":"zh","full_text":"美国现在有近70万人死于Covid-19 -- 使其成为美国历史上最致命的大流行病。\n\n最近死亡的大多数人是在南方，而且没有接种疫苗。许多受害者也比以前年轻。https://t.co/SqffAYhunH","quoted_status_full_text":null,"retweeted_status_full_text":null},{"locale":"zh-Hant","full_text":"美國現在有近70萬人死於Covid-19 -- 使其成爲美國曆史上最致命的大流行病。\n\n最近死亡的大多數人是在南方，而且沒有接種疫苗。許多受害者也比以前年輕。https://t.co/SqffAYhunH","quoted_status_full_text":null,"retweeted_status_full_text":null}]}},{"id":"TweetPost-1444029375272325124","excerpt":"","slug":"/tweet/1444029375272325124","title":"A Danish museum gave an artist about $83,000 to reproduce pieces reflecting the nature of work in the modern world.\n\nHe pocketed the cash and delivered two blank canvases titled \"Take the Money and Run.\" https://t.co/CjyA115QVt","date":"October 01, 2021","dateISO":"2021-10-01T21:20:41.000Z","datetime":"2021-10-01 21:20","tags":["tweet"],"image":null,"imageAlt":null,"__typename":"SocialMediaPost","provider":"Twitter","thirdPartyId":"1444029375272325124","url":"https://twitter.com/nytimes/statuses/1444029375272325124","originalUrl":null,"imageRemote":null,"video":null,"channel":null,"channelUrl":null,"author":"The New York Times","authorUrl":"https://twitter.com/nytimes","authorImageRemote":"https://pbs.twimg.com/profile_images/1098244578472280064/gjkVMelR.png","authorImage":null,"authorSlug":"nytimes","score":1160,"views":null,"sharedCount":155,"likeCount":850,"sharedContent":null,"parent":{"localize":[{"locale":"ja","full_text":"デンマークの美術館は、あるアーティストに約8万3,000ドルを与えて、現代社会の仕事のあり方を反映した作品を複製させました。\n\n彼はそのお金をポケットに入れ、「Take the Money and Run」と題した2枚の真っ白なキャンバスを納品しました。https://t.co/CjyA115QVt","quoted_status_full_text":null,"retweeted_status_full_text":null},{"locale":"zh","full_text":"一家丹麦博物馆给了一位艺术家约83,000美元，让他复制反映现代世界工作性质的作品。\n\n他将现金收入囊中，并交付了两幅名为 \"拿钱跑路 \"的空白画布。https://t.co/CjyA115QVt","quoted_status_full_text":null,"retweeted_status_full_text":null},{"locale":"zh-Hant","full_text":"一家丹麥博物館給了一位藝術家約83,000美元，讓他複製反映現代世界工作性質的作品。\n\n他將現金收入囊中，並交付了兩幅名爲 \"拿錢跑路 \"的空白畫布。https://t.co/CjyA115QVt","quoted_status_full_text":null,"retweeted_status_full_text":null}]}},{"id":"TweetPost-1443787808175448068","excerpt":"","slug":"/tweet/1443787808175448068","title":"California is the latest example of vaccine requirements leading to more vaccinations.\n\nIn a survey of more than a dozen of the state’s major hospital systems, most health care employers reported vaccination rates this week of 90% or higher. Read more: https://t.co/Czt7XTcDva https://t.co/i8q5Cdsc9a","date":"October 01, 2021","dateISO":"2021-10-01T16:30:07.000Z","datetime":"2021-10-01 16:30","tags":["tweet"],"image":null,"imageAlt":"Tweet Image","__typename":"SocialMediaPost","provider":"Twitter","thirdPartyId":"1443787808175448068","url":"https://twitter.com/nytimes/statuses/1443787808175448068","originalUrl":null,"imageRemote":"https://pbs.twimg.com/media/FAldXDxWQAEMw3q.jpg","video":null,"channel":null,"channelUrl":null,"author":"The New York Times","authorUrl":"https://twitter.com/nytimes","authorImageRemote":"https://pbs.twimg.com/profile_images/1098244578472280064/gjkVMelR.png","authorImage":null,"authorSlug":"nytimes","score":1006,"views":null,"sharedCount":147,"likeCount":712,"sharedContent":null,"parent":{"localize":[{"locale":"ja","full_text":"カリフォルニア州は、ワクチン接種の義務化がより多くのワクチン接種につながっている最新の例です。\n\n同州の主要な病院システム十数カ所を対象とした調査では、ほとんどの医療機関の雇用主が今週のワクチン接種率を90％以上と報告しています。続きを読む: https://t.co/Czt7XTcDva https://t.co/i8q5Cdsc9a","quoted_status_full_text":null,"retweeted_status_full_text":null},{"locale":"zh","full_text":"加州是疫苗要求导致更多疫苗接种的最新例子。\n\n在对该州十几家主要医院系统的调查中，大多数医疗保健雇主本周报告的疫苗接种率为90%或更高。阅读更多：https://t.co/Czt7XTcDva https://t.co/i8q5Cdsc9a","quoted_status_full_text":null,"retweeted_status_full_text":null},{"locale":"zh-Hant","full_text":"加州是疫苗要求導致更多疫苗接種的最新例子。\n\n在對該州十幾家主要醫院系統的調查中，大多數醫療保健僱主本週報告的疫苗接種率爲90%或更高。閱讀更多：https://t.co/Czt7XTcDva https://t.co/i8q5Cdsc9a","quoted_status_full_text":null,"retweeted_status_full_text":null}]}},{"id":"TweetPost-1443596528929677315","excerpt":"","slug":"/tweet/1443596528929677315","title":"\"Maybe I’ll be remembered as the Grumpy Bond,\" Daniel Craig told us as he bids farewell to the superspy. \"But I’m quite satisfied with that.\" https://t.co/VzJyHCAVZM","date":"October 01, 2021","dateISO":"2021-10-01T15:42:45.000Z","datetime":"2021-10-01 15:42","tags":["tweet"],"image":null,"imageAlt":null,"__typename":"SocialMediaPost","provider":"Twitter","thirdPartyId":"1443596528929677315","url":"https://twitter.com/nytimes/statuses/1443596528929677315","originalUrl":null,"imageRemote":null,"video":null,"channel":null,"channelUrl":null,"author":"The New York Times","authorUrl":"https://twitter.com/nytimes","authorImageRemote":"https://pbs.twimg.com/profile_images/1098244578472280064/gjkVMelR.png","authorImage":null,"authorSlug":"nytimes","score":1012,"views":null,"sharedCount":113,"likeCount":786,"sharedContent":null,"parent":{"localize":[{"locale":"ja","full_text":"ダニエル・クレイグは、スーパースパイに別れを告げるにあたり、「もしかしたら、僕は不機嫌なボンドとして記憶されるかもしれない」と語りました。「しかし、私はそれで満足しています」 https://t.co/VzJyHCAVZM","quoted_status_full_text":null,"retweeted_status_full_text":null},{"locale":"zh","full_text":"\"也许我将作为脾气暴躁的邦德被人们记住，\"丹尼尔-克雷格在告别这位超级间谍时告诉我们。\"但我对这一点相当满意。\" https://t.co/VzJyHCAVZM","quoted_status_full_text":null,"retweeted_status_full_text":null},{"locale":"zh-Hant","full_text":"\"也許我將作爲脾氣暴躁的邦德被人們記住，\"丹尼爾-克雷格在告別這位超級間諜時告訴我們。\"但我對這一點相當滿意。\" https://t.co/VzJyHCAVZM","quoted_status_full_text":null,"retweeted_status_full_text":null}]}},{"id":"TweetPost-1443912096912187416","excerpt":"","slug":"/tweet/1443912096912187416","title":"Portugal is among the world’s leaders in vaccinations, with roughly 86% of its population fully inoculated.\n\nVice Adm. Henrique Gouveia e Melo, who turned the country’s vaccine campaign around, said there was a key to his success: Keep politics out of it.\nhttps://t.co/ZGFNBv7SRX","date":"October 01, 2021","dateISO":"2021-10-01T12:41:45.000Z","datetime":"2021-10-01 12:41","tags":["tweet"],"image":null,"imageAlt":null,"__typename":"SocialMediaPost","provider":"Twitter","thirdPartyId":"1443912096912187416","url":"https://twitter.com/nytimes/statuses/1443912096912187416","originalUrl":null,"imageRemote":null,"video":null,"channel":null,"channelUrl":null,"author":"The New York Times","authorUrl":"https://twitter.com/nytimes","authorImageRemote":"https://pbs.twimg.com/profile_images/1098244578472280064/gjkVMelR.png","authorImage":null,"authorSlug":"nytimes","score":1146,"views":null,"sharedCount":186,"likeCount":774,"sharedContent":null,"parent":{"localize":[{"locale":"ja","full_text":"ポルトガルは世界でも有数のワクチン接種国であり、国民の約86％が予防接種を受けています。\n\nこの国のワクチンキャンペーンを一変させたエンリケ・グヴェイア・エ・メロ副提督は、成功の秘訣を次のように語っている。それは「政治を介入させないこと」です。\nhttps://t.co/ZGFNBv7SRX","quoted_status_full_text":null,"retweeted_status_full_text":null},{"locale":"zh","full_text":"葡萄牙是世界上疫苗接种的领先者之一，大约有86%的人口接受了全面接种。\n\n扭转该国疫苗运动的恩里克-古韦亚-梅洛副司令说，他的成功有一个关键。让政治远离它。\nhttps://t.co/ZGFNBv7SRX","quoted_status_full_text":null,"retweeted_status_full_text":null},{"locale":"zh-Hant","full_text":"葡萄牙是世界上疫苗接種的領先者之一，大約有86%的人口接受了全面接種。\n\n扭轉該國疫苗運動的恩裏克-古韋亞-梅洛副司令說，他的成功有一個關鍵。讓政治遠離它。\nhttps://t.co/ZGFNBv7SRX","quoted_status_full_text":null,"retweeted_status_full_text":null}]}},{"id":"TweetPost-1443727419194675203","excerpt":"","slug":"/tweet/1443727419194675203","title":"Jeff Ament of Pearl Jam is bringing high-end skate parks to every city and town in Montana that will have one. “It’s much bigger than skateboarding,” he said. https://t.co/DcmScrkIWY https://t.co/yWMpgsuXk3","date":"October 01, 2021","dateISO":"2021-10-01T11:33:51.000Z","datetime":"2021-10-01 11:33","tags":["tweet"],"image":null,"imageAlt":"Tweet Image","__typename":"SocialMediaPost","provider":"Twitter","thirdPartyId":"1443727419194675203","url":"https://twitter.com/nytimes/statuses/1443727419194675203","originalUrl":null,"imageRemote":"https://pbs.twimg.com/media/FAkmbcXXIAM5nFa.jpg","video":null,"channel":null,"channelUrl":null,"author":"The New York Times","authorUrl":"https://twitter.com/nytimes","authorImageRemote":"https://pbs.twimg.com/profile_images/1098244578472280064/gjkVMelR.png","authorImage":null,"authorSlug":"nytimes","score":1001,"views":null,"sharedCount":93,"likeCount":815,"sharedContent":null,"parent":{"localize":[{"locale":"ja","full_text":"パール・ジャムのジェフ・アメントは、モンタナ州のすべての市や町にハイエンドのスケートパークを設置することを目指しています。\"スケートボードよりもはるかに大きなものだ \"と彼は言います。 https://t.co/DcmScrkIWY https://t.co/yWMpgsuXk3","quoted_status_full_text":null,"retweeted_status_full_text":null},{"locale":"zh","full_text":"珍珠果酱的Jeff Ament正在将高端滑板公园带到蒙大拿州的每一个城市和城镇，这些城市和城镇将有一个滑板公园。\"这比滑板要大得多，\"他说。https://t.co/DcmScrkIWY https://t.co/yWMpgsuXk3","quoted_status_full_text":null,"retweeted_status_full_text":null},{"locale":"zh-Hant","full_text":"珍珠果醬的Jeff Ament正在將高端滑板公園帶到蒙大拿州的每一個城市和城鎮，這些城市和城鎮將有一個滑板公園。\"這比滑板要大得多，\"他說。https://t.co/DcmScrkIWY https://t.co/yWMpgsuXk3","quoted_status_full_text":null,"retweeted_status_full_text":null}]}},{"id":"TweetPost-1443883577490411527","excerpt":"","slug":"/tweet/1443883577490411527","title":"The drug maker Merck will seek authorization for the first antiviral pill for Covid. The drug, molnupiravir, cut the risk of hospitalization or death in half when given to high-risk people early in their infections, a clinical trial found.\nhttps://t.co/6VyYq3iDtJ","date":"October 01, 2021","dateISO":"2021-10-01T11:00:37.000Z","datetime":"2021-10-01 11:00","tags":["tweet"],"image":null,"imageAlt":null,"__typename":"SocialMediaPost","provider":"Twitter","thirdPartyId":"1443883577490411527","url":"https://twitter.com/nytimes/statuses/1443883577490411527","originalUrl":null,"imageRemote":null,"video":null,"channel":null,"channelUrl":null,"author":"The New York Times","authorUrl":"https://twitter.com/nytimes","authorImageRemote":"https://pbs.twimg.com/profile_images/1098244578472280064/gjkVMelR.png","authorImage":null,"authorSlug":"nytimes","score":1029,"views":null,"sharedCount":220,"likeCount":589,"sharedContent":null,"parent":{"localize":[{"locale":"ja","full_text":"製薬メーカーのメルク社は、「コビット」の初の抗ウイルス剤の認可を求めます。この薬、モルヌピラビルは、ハイリスクの人に感染初期に投与すると、入院や死亡のリスクが半分になることが臨床試験で明らかになった。\nhttps://t.co/6VyYq3iDtJ","quoted_status_full_text":null,"retweeted_status_full_text":null},{"locale":"zh","full_text":"制药商默克公司将为科威德的第一种抗病毒药寻求授权。一项临床试验发现，这种药物--莫努匹拉韦，在感染早期给高危人群服用时，可将住院或死亡的风险减半。\nhttps://t.co/6VyYq3iDtJ","quoted_status_full_text":null,"retweeted_status_full_text":null},{"locale":"zh-Hant","full_text":"製藥商默克公司將爲科威德的第一種抗病毒藥尋求授權。一項臨牀試驗發現，這種藥物--莫努匹拉韋，在感染早期給高危人羣服用時，可將住院或死亡的風險減半。\nhttps://t.co/6VyYq3iDtJ","quoted_status_full_text":null,"retweeted_status_full_text":null}]}},{"id":"TweetPost-1443840366105538563","excerpt":"","slug":"/tweet/1443840366105538563","title":"Princess Mako of Japan is going to marry her college boyfriend, a commoner, after a long and arduous engagement. The pressure has been so intense that the princess has been diagnosed with post-traumatic stress disorder, Japan’s public broadcaster reported. https://t.co/SVtIfDD4Ci","date":"October 01, 2021","dateISO":"2021-10-01T10:14:59.000Z","datetime":"2021-10-01 10:14","tags":["tweet"],"image":null,"imageAlt":null,"__typename":"SocialMediaPost","provider":"Twitter","thirdPartyId":"1443840366105538563","url":"https://twitter.com/nytimes/statuses/1443840366105538563","originalUrl":null,"imageRemote":null,"video":null,"channel":null,"channelUrl":null,"author":"The New York Times","authorUrl":"https://twitter.com/nytimes","authorImageRemote":"https://pbs.twimg.com/profile_images/1098244578472280064/gjkVMelR.png","authorImage":null,"authorSlug":"nytimes","score":1027,"views":null,"sharedCount":160,"likeCount":707,"sharedContent":null,"parent":{"localize":[{"locale":"ja","full_text":"日本の眞子さまは、大学時代に付き合っていた一般人の彼氏と、長い間の婚約期間を経て結婚することになりました。あまりのプレッシャーに、皇太子妃は心的外傷後ストレス障害と診断されたと、日本の公共放送が報じました。https://t.co/SVtIfDD4Ci","quoted_status_full_text":null,"retweeted_status_full_text":null},{"locale":"zh","full_text":"日本的真子公主在经历了漫长而艰辛的订婚后，将与她的大学男友--一个普通人结婚。日本公共广播公司报道说，压力如此之大，以至于公主被诊断出患有创伤后应激障碍。https://t.co/SVtIfDD4Ci","quoted_status_full_text":null,"retweeted_status_full_text":null},{"locale":"zh-Hant","full_text":"日本的真子公主在經歷了漫長而艱辛的訂婚後，將與她的大學男友--一個普通人結婚。日本公共廣播公司報道說，壓力如此之大，以至於公主被診斷出患有創傷後應激障礙。https://t.co/SVtIfDD4Ci","quoted_status_full_text":null,"retweeted_status_full_text":null}]}},{"id":"TweetPost-1443719834324377603","excerpt":"","slug":"/tweet/1443719834324377603","title":"Representatives Cori Bush, Pramila Jayapal and Barbara Lee spoke to a House committee about their personal decisions to seek an abortion. https://t.co/ipRzrE00YC https://t.co/5WAk52EVIh","date":"October 01, 2021","dateISO":"2021-10-01T04:45:42.000Z","datetime":"2021-10-01 04:45","tags":["tweet"],"image":null,"imageAlt":"Tweet Image","__typename":"SocialMediaPost","provider":"Twitter","thirdPartyId":"1443719834324377603","url":"https://twitter.com/nytimes/statuses/1443719834324377603","originalUrl":null,"imageRemote":"https://pbs.twimg.com/amplify_video_thumb/1443714523811155970/img/akOm5Gk3BbPKqW3i.jpg","video":null,"channel":null,"channelUrl":null,"author":"The New York Times","authorUrl":"https://twitter.com/nytimes","authorImageRemote":"https://pbs.twimg.com/profile_images/1098244578472280064/gjkVMelR.png","authorImage":null,"authorSlug":"nytimes","score":1001,"views":null,"sharedCount":146,"likeCount":709,"sharedContent":null,"parent":{"localize":[{"locale":"ja","full_text":"コリ・ブッシュ、プラミラ・ジャヤパル、バーバラ・リーの各議員は、下院委員会で、中絶を求める個人的な決断について話しました。 https://t.co/ipRzrE00YC https://t.co/5WAk52EVIh","quoted_status_full_text":null,"retweeted_status_full_text":null},{"locale":"zh","full_text":"科里-布什、普拉米拉-贾亚帕尔和芭芭拉-李众议员在众议院委员会上谈到了他们寻求堕胎的个人决定。https://t.co/ipRzrE00YC https://t.co/5WAk52EVIh","quoted_status_full_text":null,"retweeted_status_full_text":null},{"locale":"zh-Hant","full_text":"科裏-布什、普拉米拉-賈亞帕爾和芭芭拉-李衆議員在衆議院委員會上談到了他們尋求墮胎的個人決定。https://t.co/ipRzrE00YC https://t.co/5WAk52EVIh","quoted_status_full_text":null,"retweeted_status_full_text":null}]}},{"id":"TweetPost-1443540000604364807","excerpt":"","slug":"/tweet/1443540000604364807","title":"Breaking News: Wayne Couzens, the police officer who pleaded guilty to the abduction, rape and murder of Sarah Everard — a 33-year-old London woman whose death prompted calls to address violence against women — was sentenced to life in prison. https://t.co/4WfE00uO17","date":"October 01, 2021","dateISO":"2021-10-01T02:58:34.000Z","datetime":"2021-10-01 02:58","tags":["tweet"],"image":null,"imageAlt":null,"__typename":"SocialMediaPost","provider":"Twitter","thirdPartyId":"1443540000604364807","url":"https://twitter.com/nytimes/statuses/1443540000604364807","originalUrl":null,"imageRemote":null,"video":null,"channel":null,"channelUrl":null,"author":"The New York Times","authorUrl":"https://twitter.com/nytimes","authorImageRemote":"https://pbs.twimg.com/profile_images/1098244578472280064/gjkVMelR.png","authorImage":null,"authorSlug":"nytimes","score":1001,"views":null,"sharedCount":119,"likeCount":763,"sharedContent":null,"parent":{"localize":[{"locale":"ja","full_text":"Breaking Newsです。サラ・エベラード（ロンドン在住の33歳の女性）の誘拐、レイプ、殺人の罪を認めた警察官、ウェイン・クーゼンズが終身刑を宣告されました。女性に対する暴力への対策を求める声が高まっていました。https://t.co/4WfE00uO17","quoted_status_full_text":null,"retweeted_status_full_text":null},{"locale":"zh","full_text":"突发新闻。韦恩-库森斯，这位承认犯有绑架、强奸和谋杀莎拉-埃弗拉德的警官--这位33岁的伦敦妇女的死亡促使人们呼吁解决对妇女的暴力问题--被判处终身监禁。https://t.co/4WfE00uO17","quoted_status_full_text":null,"retweeted_status_full_text":null},{"locale":"zh-Hant","full_text":"突發新聞。韋恩-庫森斯，這位承認犯有綁架、強姦和謀殺莎拉-埃弗拉德的警官--這位33歲的倫敦婦女的死亡促使人們呼籲解決對婦女的暴力問題--被判處終身監禁。https://t.co/4WfE00uO17","quoted_status_full_text":null,"retweeted_status_full_text":null}]}},{"id":"TweetPost-1443612870231592964","excerpt":"","slug":"/tweet/1443612870231592964","title":"The city of San Jose, California, apologized this week to Chinese immigrants and their descendants, acknowledging its role in nearly a century of violence and discrimination, including the dismantling and destruction of the city’s Chinatowns. https://t.co/4wMtGwEYYm","date":"October 01, 2021","dateISO":"2021-10-01T01:12:50.000Z","datetime":"2021-10-01 01:12","tags":["tweet"],"image":null,"imageAlt":null,"__typename":"SocialMediaPost","provider":"Twitter","thirdPartyId":"1443612870231592964","url":"https://twitter.com/nytimes/statuses/1443612870231592964","originalUrl":null,"imageRemote":null,"video":null,"channel":null,"channelUrl":null,"author":"The New York Times","authorUrl":"https://twitter.com/nytimes","authorImageRemote":"https://pbs.twimg.com/profile_images/1098244578472280064/gjkVMelR.png","authorImage":null,"authorSlug":"nytimes","score":1045,"views":null,"sharedCount":171,"likeCount":703,"sharedContent":null,"parent":{"localize":[{"locale":"ja","full_text":"カリフォルニア州サンノゼ市は今週、中国からの移民とその子孫に謝罪し、市のチャイナタウンの解体や破壊を含む、約1世紀にわたる暴力と差別に関与したことを認めた。https://t.co/4wMtGwEYYm","quoted_status_full_text":null,"retweeted_status_full_text":null},{"locale":"zh","full_text":"加利福尼亚州圣何塞市本周向中国移民及其后代道歉，承认其在近一个世纪的暴力和歧视中的作用，包括拆除和破坏该市的中国城。https://t.co/4wMtGwEYYm。","quoted_status_full_text":null,"retweeted_status_full_text":null},{"locale":"zh-Hant","full_text":"加利福尼亞州聖何塞市本週向中國移民及其後代道歉，承認其在近一個世紀的暴力和歧視中的作用，包括拆除和破壞該市的中國城。https://t.co/4wMtGwEYYm。","quoted_status_full_text":null,"retweeted_status_full_text":null}]}},{"id":"TweetPost-1443737463667703815","excerpt":"","slug":"/tweet/1443737463667703815","title":"A month after they escaped from a farm in Maryland, five zebras have evaded capture and are continuing to ramble across the wilds of suburban Prince George’s County. \nhttps://t.co/xtYbf39Iel","date":"October 01, 2021","dateISO":"2021-10-01T01:12:50.000Z","datetime":"2021-10-01 01:12","tags":["tweet"],"image":null,"imageAlt":null,"__typename":"SocialMediaPost","provider":"Twitter","thirdPartyId":"1443737463667703815","url":"https://twitter.com/nytimes/statuses/1443737463667703815","originalUrl":null,"imageRemote":null,"video":null,"channel":null,"channelUrl":null,"author":"The New York Times","authorUrl":"https://twitter.com/nytimes","authorImageRemote":"https://pbs.twimg.com/profile_images/1098244578472280064/gjkVMelR.png","authorImage":null,"authorSlug":"nytimes","score":1042,"views":null,"sharedCount":127,"likeCount":788,"sharedContent":null,"parent":{"localize":[{"locale":"ja","full_text":"メリーランド州の農場から脱走して1ヶ月、5頭のシマウマが捕獲を免れ、郊外のプリンスジョージズ郡の荒野を放浪し続けている。\nhttps://t.co/xtYbf39Iel","quoted_status_full_text":null,"retweeted_status_full_text":null},{"locale":"zh","full_text":"从马里兰州的一个农场逃出一个月后，五匹斑马躲过了追捕，继续在乔治王子县郊区的荒野中游荡。\nhttps://t.co/xtYbf39Iel","quoted_status_full_text":null,"retweeted_status_full_text":null},{"locale":"zh-Hant","full_text":"從馬里蘭州的一個農場逃出一個月後，五匹斑馬躲過了追捕，繼續在喬治王子縣郊區的荒野中游蕩。\nhttps://t.co/xtYbf39Iel","quoted_status_full_text":null,"retweeted_status_full_text":null}]}}]}},"pageContext":{"basePath":"/","pageType":"home","tagsFilter":{"date":{"gt":"2000-12-25T10:54:58.000Z"}},"filter":{"date":{"gt":"2000-12-25T10:54:58.000Z"}},"limit":50,"skip":1000,"totalPages":21,"total":1015,"currentPage":21,"maxWidth":1024,"maxHeight":512,"siteMetadata":null,"locale":"en","hrefLang":"en-US","originalPath":"/page/21","dateFormat":"MM/DD/YYYY"}},
    "staticQueryHashes": ["1239077767","2744905544","3025052997","3280999885"]}